{
  "pdf_file": "/home/liam-oreilly/claude.projects/electricalSchematics/DRAWER.pdf",
  "parts_list_count": 24,
  "parts_list": [
    "+DG-B1",
    "+DG-M1",
    "+DG-V1",
    "-A1",
    "-EL1",
    "-EL2",
    "-F2",
    "-F3",
    "-F4",
    "-F5",
    "-F6",
    "-F7",
    "-G1",
    "-K1",
    "-K2",
    "-K3",
    "-KR1",
    "-R1",
    "-R2",
    "-R3",
    "-R4",
    "-U1",
    "-Z1",
    "-Z2"
  ],
  "schematic_pages": [
    7,
    8,
    9,
    10,
    13,
    14,
    15,
    16,
    17,
    18,
    19,
    20,
    21,
    22,
    23,
    24
  ],
  "total_tag_occurrences": 154,
  "unique_tags_found": 24,
  "tags_never_found": [],
  "tags_by_page": {
    "7": [
      "-A1",
      "-F4",
      "-G1",
      "-K1"
    ],
    "8": [
      "-K1",
      "-K2",
      "-K3",
      "-KR1",
      "-U1"
    ],
    "9": [
      "-F2",
      "-F3",
      "-F4",
      "-F5",
      "-F6",
      "-F7",
      "-K1",
      "-K2"
    ],
    "10": [
      "-K1"
    ],
    "13": [
      "-A1",
      "-F2",
      "-F3",
      "-K1"
    ],
    "14": [
      "-EL1",
      "-EL2",
      "-F2",
      "-F3"
    ],
    "15": [
      "-A1",
      "-F4",
      "-F5",
      "-F6",
      "-G1",
      "-K1"
    ],
    "16": [],
    "17": [
      "-A1"
    ],
    "18": [
      "-A1",
      "-K1",
      "-K2",
      "-K3",
      "-KR1",
      "-U1"
    ],
    "19": [
      "-A1",
      "-K1",
      "-K2",
      "-K3",
      "-KR1"
    ],
    "20": [
      "+DG-B1",
      "+DG-M1",
      "+DG-V1",
      "-K1",
      "-K2",
      "-R1",
      "-R2",
      "-R3",
      "-R4",
      "-U1",
      "-Z1",
      "-Z2"
    ],
    "21": [
      "-F7",
      "-K1"
    ],
    "22": [],
    "23": [],
    "24": []
  },
  "tags_with_counts": {
    "+DG-B1": {
      "count": 1,
      "pages": [
        20
      ],
      "page_count": 1,
      "positions": [
        {
          "page": 20,
          "x0": 712.8460083007812,
          "y0": 606.2735595703125,
          "x1": 739.843017578125,
          "y1": 614.9794311523438,
          "center_x": 726.3445129394531,
          "center_y": 610.6264953613281
        }
      ]
    },
    "+DG-M1": {
      "count": 1,
      "pages": [
        20
      ],
      "page_count": 1,
      "positions": [
        {
          "page": 20,
          "x0": 238.11000061035156,
          "y0": 567.8465576171875,
          "x1": 267.81451416015625,
          "y1": 576.5524291992188,
          "center_x": 252.9622573852539,
          "center_y": 572.1994934082031
        }
      ]
    },
    "+DG-V1": {
      "count": 1,
      "pages": [
        20
      ],
      "page_count": 1,
      "positions": [
        {
          "page": 20,
          "x0": 83.62200164794922,
          "y0": 582.03759765625,
          "x1": 110.8192367553711,
          "y1": 590.7434692382812,
          "center_x": 97.22061920166016,
          "center_y": 586.3905334472656
        }
      ]
    },
    "-A1": {
      "count": 26,
      "pages": [
        7,
        13,
        15,
        17,
        18,
        19
      ],
      "page_count": 6,
      "positions": [
        {
          "page": 7,
          "x0": 33.23569869995117,
          "y0": 50.70055389404297,
          "x1": 45.354312896728516,
          "y1": 59.406455993652344,
          "center_x": 39.295005798339844,
          "center_y": 55.053504943847656
        },
        {
          "page": 7,
          "x0": 30.401100158691406,
          "y0": 596.2105712890625,
          "x1": 42.51971435546875,
          "y1": 604.9164428710938,
          "center_x": 36.46040725708008,
          "center_y": 600.5635070800781
        },
        {
          "page": 7,
          "x0": 239.81100463867188,
          "y0": 586.005615234375,
          "x1": 249.26560974121094,
          "y1": 594.7114868164062,
          "center_x": 244.5383071899414,
          "center_y": 590.3585510253906
        },
        {
          "page": 7,
          "x0": 407.40899658203125,
          "y0": 50.70055389404297,
          "x1": 419.527587890625,
          "y1": 59.406455993652344,
          "center_x": 413.4682922363281,
          "center_y": 55.053504943847656
        },
        {
          "page": 7,
          "x0": 792.9210205078125,
          "y0": 50.70055389404297,
          "x1": 805.0396118164062,
          "y1": 59.406455993652344,
          "center_x": 798.9803161621094,
          "center_y": 55.053504943847656
        },
        {
          "page": 13,
          "x0": 968.5885620117188,
          "y0": 111.28363037109375,
          "x1": 977.29443359375,
          "y1": 138.95098876953125,
          "center_x": 972.9414978027344,
          "center_y": 125.1173095703125
        },
        {
          "page": 13,
          "x0": 809.8485717773438,
          "y0": 111.28363037109375,
          "x1": 818.554443359375,
          "y1": 138.95098876953125,
          "center_x": 814.2015075683594,
          "center_y": 125.1173095703125
        },
        {
          "page": 13,
          "x0": 764.4945678710938,
          "y0": 111.28363037109375,
          "x1": 773.200439453125,
          "y1": 138.95098876953125,
          "center_x": 768.8475036621094,
          "center_y": 125.1173095703125
        },
        {
          "page": 13,
          "x0": 719.1395874023438,
          "y0": 111.28348541259766,
          "x1": 727.845458984375,
          "y1": 142.61602783203125,
          "center_x": 723.4925231933594,
          "center_y": 126.94975662231445
        },
        {
          "page": 13,
          "x0": 628.4315795898438,
          "y0": 111.28348541259766,
          "x1": 637.137451171875,
          "y1": 142.61602783203125,
          "center_x": 632.7845153808594,
          "center_y": 126.94975662231445
        }
      ]
    },
    "-EL1": {
      "count": 1,
      "pages": [
        14
      ],
      "page_count": 1,
      "positions": [
        {
          "page": 14,
          "x0": 593.0490112304688,
          "y0": 611.0925903320312,
          "x1": 608.0318603515625,
          "y1": 619.7984619140625,
          "center_x": 600.5404357910156,
          "center_y": 615.4455261230469
        }
      ]
    },
    "-EL2": {
      "count": 1,
      "pages": [
        14
      ],
      "page_count": 1,
      "positions": [
        {
          "page": 14,
          "x0": 808.4819946289062,
          "y0": 605.423583984375,
          "x1": 823.46484375,
          "y1": 614.1294555664062,
          "center_x": 815.9734191894531,
          "center_y": 609.7765197753906
        }
      ]
    },
    "-F2": {
      "count": 4,
      "pages": [
        9,
        13,
        14
      ],
      "page_count": 3,
      "positions": [
        {
          "page": 9,
          "x0": 190.18600463867188,
          "y0": 229.83258056640625,
          "x1": 201.25991821289062,
          "y1": 238.53846740722656,
          "center_x": 195.72296142578125,
          "center_y": 234.1855239868164
        },
        {
          "page": 13,
          "x0": 233.90499877929688,
          "y0": 295.2425842285156,
          "x1": 242.3148956298828,
          "y1": 303.948486328125,
          "center_x": 238.10994720458984,
          "center_y": 299.5955352783203
        },
        {
          "page": 13,
          "x0": 228.17958068847656,
          "y0": 354.1080322265625,
          "x1": 236.88546752929688,
          "y1": 371.9289855957031,
          "center_x": 232.53252410888672,
          "center_y": 363.0185089111328
        },
        {
          "page": 14,
          "x0": 314.9100036621094,
          "y0": 405.9355773925781,
          "x1": 325.98388671875,
          "y1": 414.6414794921875,
          "center_x": 320.4469451904297,
          "center_y": 410.2885284423828
        }
      ]
    },
    "-F3": {
      "count": 3,
      "pages": [
        9,
        13,
        14
      ],
      "page_count": 3,
      "positions": [
        {
          "page": 9,
          "x0": 258.2170104980469,
          "y0": 229.83258056640625,
          "x1": 269.2908935546875,
          "y1": 238.53846740722656,
          "center_x": 263.7539520263672,
          "center_y": 234.1855239868164
        },
        {
          "page": 13,
          "x0": 267.9209899902344,
          "y0": 295.2425842285156,
          "x1": 276.33087158203125,
          "y1": 303.948486328125,
          "center_x": 272.1259307861328,
          "center_y": 299.5955352783203
        },
        {
          "page": 14,
          "x0": 394.2799987792969,
          "y0": 405.9355773925781,
          "x1": 405.3538818359375,
          "y1": 414.6414794921875,
          "center_x": 399.8169403076172,
          "center_y": 410.2885284423828
        }
      ]
    },
    "-F4": {
      "count": 3,
      "pages": [
        7,
        9,
        15
      ],
      "page_count": 3,
      "positions": [
        {
          "page": 7,
          "x0": 439.635009765625,
          "y0": 610.0296020507812,
          "x1": 450.7088928222656,
          "y1": 618.7354736328125,
          "center_x": 445.1719512939453,
          "center_y": 614.3825378417969
        },
        {
          "page": 9,
          "x0": 428.2959899902344,
          "y0": 377.2345886230469,
          "x1": 439.369873046875,
          "y1": 385.94049072265625,
          "center_x": 433.8329315185547,
          "center_y": 381.58753967285156
        },
        {
          "page": 15,
          "x0": 122.15399932861328,
          "y0": 530.6595458984375,
          "x1": 133.2279052734375,
          "y1": 539.3654174804688,
          "center_x": 127.69095230102539,
          "center_y": 535.0124816894531
        }
      ]
    },
    "-F5": {
      "count": 2,
      "pages": [
        9,
        15
      ],
      "page_count": 2,
      "positions": [
        {
          "page": 9,
          "x0": 326.2489929199219,
          "y0": 377.2345886230469,
          "x1": 337.3228759765625,
          "y1": 385.94049072265625,
          "center_x": 331.7859344482422,
          "center_y": 381.58753967285156
        },
        {
          "page": 15,
          "x0": 190.18600463867188,
          "y0": 224.517578125,
          "x1": 201.25991821289062,
          "y1": 233.2234649658203,
          "center_x": 195.72296142578125,
          "center_y": 228.87052154541016
        }
      ]
    },
    "-F6": {
      "count": 2,
      "pages": [
        9,
        15
      ],
      "page_count": 2,
      "positions": [
        {
          "page": 9,
          "x0": 371.6029968261719,
          "y0": 377.2345886230469,
          "x1": 382.6768798828125,
          "y1": 385.94049072265625,
          "center_x": 377.1399383544922,
          "center_y": 381.58753967285156
        },
        {
          "page": 15,
          "x0": 122.15399932861328,
          "y0": 224.517578125,
          "x1": 133.2279052734375,
          "y1": 233.2234649658203,
          "center_x": 127.69095230102539,
          "center_y": 228.87052154541016
        }
      ]
    },
    "-F7": {
      "count": 2,
      "pages": [
        9,
        21
      ],
      "page_count": 2,
      "positions": [
        {
          "page": 9,
          "x0": 280.8949890136719,
          "y0": 581.32861328125,
          "x1": 291.9688720703125,
          "y1": 590.0344848632812,
          "center_x": 286.4319305419922,
          "center_y": 585.6815490722656
        },
        {
          "page": 21,
          "x0": 76.80010223388672,
          "y0": 122.47057342529297,
          "x1": 87.87400817871094,
          "y1": 131.1764678955078,
          "center_x": 82.33705520629883,
          "center_y": 126.82352066040039
        }
      ]
    },
    "-G1": {
      "count": 2,
      "pages": [
        7,
        15
      ],
      "page_count": 2,
      "positions": [
        {
          "page": 7,
          "x0": 406.95599365234375,
          "y0": 564.6755981445312,
          "x1": 419.5273132324219,
          "y1": 573.3814697265625,
          "center_x": 413.2416534423828,
          "center_y": 569.0285339355469
        },
        {
          "page": 15,
          "x0": 157.5070037841797,
          "y0": 111.13158416748047,
          "x1": 170.0783233642578,
          "y1": 119.83748626708984,
          "center_x": 163.79266357421875,
          "center_y": 115.48453521728516
        }
      ]
    },
    "-K1": {
      "count": 70,
      "pages": [
        7,
        8,
        9,
        10,
        13,
        15,
        18,
        19,
        20,
        21
      ],
      "page_count": 10,
      "positions": [
        {
          "page": 7,
          "x0": 209.4969940185547,
          "y0": 598.6905517578125,
          "x1": 221.10195922851562,
          "y1": 607.3964233398438,
          "center_x": 215.29947662353516,
          "center_y": 603.0434875488281
        },
        {
          "page": 8,
          "x0": 260.52099609375,
          "y0": 428.6125793457031,
          "x1": 272.1259460449219,
          "y1": 437.3184814453125,
          "center_x": 266.32347106933594,
          "center_y": 432.9655303955078
        },
        {
          "page": 8,
          "x0": 481.62298583984375,
          "y0": 592.6676025390625,
          "x1": 493.2279357910156,
          "y1": 601.3734741210938,
          "center_x": 487.4254608154297,
          "center_y": 597.0205383300781
        },
        {
          "page": 8,
          "x0": 543.0469970703125,
          "y0": 592.6676025390625,
          "x1": 561.2597045898438,
          "y1": 601.3734741210938,
          "center_x": 552.1533508300781,
          "center_y": 597.0205383300781
        },
        {
          "page": 8,
          "x0": 679.1099853515625,
          "y0": 592.6676025390625,
          "x1": 697.3226928710938,
          "y1": 601.3734741210938,
          "center_x": 688.2163391113281,
          "center_y": 597.0205383300781
        },
        {
          "page": 8,
          "x0": 747.1420288085938,
          "y0": 592.6676025390625,
          "x1": 765.354736328125,
          "y1": 601.3734741210938,
          "center_x": 756.2483825683594,
          "center_y": 597.0205383300781
        },
        {
          "page": 9,
          "x0": 124.45800018310547,
          "y0": 490.6205749511719,
          "x1": 136.06297302246094,
          "y1": 499.32647705078125,
          "center_x": 130.2604866027832,
          "center_y": 494.97352600097656
        },
        {
          "page": 9,
          "x0": 117.8499984741211,
          "y0": 581.32861328125,
          "x1": 136.062744140625,
          "y1": 590.0344848632812,
          "center_x": 126.95637130737305,
          "center_y": 585.6815490722656
        },
        {
          "page": 9,
          "x0": 203.8280029296875,
          "y0": 490.6205749511719,
          "x1": 215.43296813964844,
          "y1": 499.32647705078125,
          "center_x": 209.63048553466797,
          "center_y": 494.97352600097656
        },
        {
          "page": 9,
          "x0": 197.22000122070312,
          "y0": 581.32861328125,
          "x1": 215.43275451660156,
          "y1": 590.0344848632812,
          "center_x": 206.32637786865234,
          "center_y": 585.6815490722656
        }
      ]
    },
    "-K2": {
      "count": 10,
      "pages": [
        8,
        9,
        18,
        19,
        20
      ],
      "page_count": 5,
      "positions": [
        {
          "page": 8,
          "x0": 260.52099609375,
          "y0": 462.6275939941406,
          "x1": 272.1259460449219,
          "y1": 471.33349609375,
          "center_x": 266.32347106933594,
          "center_y": 466.9805450439453
        },
        {
          "page": 8,
          "x0": 617.6859741210938,
          "y0": 592.6676025390625,
          "x1": 629.2909545898438,
          "y1": 601.3734741210938,
          "center_x": 623.4884643554688,
          "center_y": 597.0205383300781
        },
        {
          "page": 8,
          "x0": 940.8359985351562,
          "y0": 116.44658660888672,
          "x1": 952.4409790039062,
          "y1": 125.1524887084961,
          "center_x": 946.6384887695312,
          "center_y": 120.7995376586914
        },
        {
          "page": 9,
          "x0": 203.8280029296875,
          "y0": 547.3135986328125,
          "x1": 215.43296813964844,
          "y1": 556.0194702148438,
          "center_x": 209.63048553466797,
          "center_y": 551.6665344238281
        },
        {
          "page": 18,
          "x0": 368.2380065917969,
          "y0": 553.3365478515625,
          "x1": 379.84295654296875,
          "y1": 562.0424194335938,
          "center_x": 374.0404815673828,
          "center_y": 557.6894836425781
        },
        {
          "page": 18,
          "x0": 842.3319702148438,
          "y0": 88.45458221435547,
          "x1": 853.9369506835938,
          "y1": 97.16048431396484,
          "center_x": 848.1344604492188,
          "center_y": 92.80753326416016
        },
        {
          "page": 18,
          "x0": 940.8359985351562,
          "y0": 235.8565673828125,
          "x1": 952.4409790039062,
          "y1": 244.5624542236328,
          "center_x": 946.6384887695312,
          "center_y": 240.20951080322266
        },
        {
          "page": 19,
          "x0": 555.323974609375,
          "y0": 167.8245849609375,
          "x1": 566.928955078125,
          "y1": 176.5304718017578,
          "center_x": 561.12646484375,
          "center_y": 172.17752838134766
        },
        {
          "page": 20,
          "x0": 90.44229888916016,
          "y0": 349.2425842285156,
          "x1": 102.04727172851562,
          "y1": 357.948486328125,
          "center_x": 96.24478530883789,
          "center_y": 353.5955352783203
        },
        {
          "page": 20,
          "x0": 158.4739990234375,
          "y0": 417.2735900878906,
          "x1": 170.07896423339844,
          "y1": 425.9794921875,
          "center_x": 164.27648162841797,
          "center_y": 421.6265411376953
        }
      ]
    },
    "-K3": {
      "count": 6,
      "pages": [
        8,
        18,
        19
      ],
      "page_count": 3,
      "positions": [
        {
          "page": 8,
          "x0": 260.52099609375,
          "y0": 496.6435852050781,
          "x1": 272.1259460449219,
          "y1": 505.3494873046875,
          "center_x": 266.32347106933594,
          "center_y": 500.9965362548828
        },
        {
          "page": 8,
          "x0": 254.8520050048828,
          "y0": 592.6676025390625,
          "x1": 266.45697021484375,
          "y1": 601.3734741210938,
          "center_x": 260.6544876098633,
          "center_y": 597.0205383300781
        },
        {
          "page": 8,
          "x0": 691.3870239257812,
          "y0": 354.5575866699219,
          "x1": 702.9920043945312,
          "y1": 363.26348876953125,
          "center_x": 697.1895141601562,
          "center_y": 358.91053771972656
        },
        {
          "page": 18,
          "x0": 714.0640258789062,
          "y0": 88.45458221435547,
          "x1": 725.6690063476562,
          "y1": 97.16048431396484,
          "center_x": 719.8665161132812,
          "center_y": 92.80753326416016
        },
        {
          "page": 19,
          "x0": 118.78900146484375,
          "y0": 553.3365478515625,
          "x1": 130.3939666748047,
          "y1": 562.0424194335938,
          "center_x": 124.59148406982422,
          "center_y": 557.6894836425781
        },
        {
          "page": 19,
          "x0": 555.323974609375,
          "y0": 349.2425842285156,
          "x1": 566.928955078125,
          "y1": 357.948486328125,
          "center_x": 561.12646484375,
          "center_y": 353.5955352783203
        }
      ]
    },
    "-KR1": {
      "count": 9,
      "pages": [
        8,
        18,
        19
      ],
      "page_count": 3,
      "positions": [
        {
          "page": 8,
          "x0": 363.510009765625,
          "y0": 592.6676025390625,
          "x1": 379.8422546386719,
          "y1": 601.3734741210938,
          "center_x": 371.67613220214844,
          "center_y": 597.0205383300781
        },
        {
          "page": 8,
          "x0": 482.56500244140625,
          "y0": 354.5575866699219,
          "x1": 498.8972473144531,
          "y1": 363.26348876953125,
          "center_x": 490.7311248779297,
          "center_y": 358.91053771972656
        },
        {
          "page": 8,
          "x0": 482.56500244140625,
          "y0": 411.2505798339844,
          "x1": 498.8972473144531,
          "y1": 419.95648193359375,
          "center_x": 490.7311248779297,
          "center_y": 415.60353088378906
        },
        {
          "page": 8,
          "x0": 550.5969848632812,
          "y0": 354.5575866699219,
          "x1": 566.9292602539062,
          "y1": 363.26348876953125,
          "center_x": 558.7631225585938,
          "center_y": 358.91053771972656
        },
        {
          "page": 8,
          "x0": 550.5969848632812,
          "y0": 411.2505798339844,
          "x1": 566.9292602539062,
          "y1": 419.95648193359375,
          "center_x": 558.7631225585938,
          "center_y": 415.60353088378906
        },
        {
          "page": 18,
          "x0": 210.43899536132812,
          "y0": 235.860595703125,
          "x1": 226.77127075195312,
          "y1": 244.5664825439453,
          "center_x": 218.60513305664062,
          "center_y": 240.21353912353516
        },
        {
          "page": 18,
          "x0": 856.739013671875,
          "y0": 485.3095703125,
          "x1": 873.0712890625,
          "y1": 494.0154724121094,
          "center_x": 864.9051513671875,
          "center_y": 489.6625213623047
        },
        {
          "page": 19,
          "x0": 403.19500732421875,
          "y0": 553.3365478515625,
          "x1": 419.5272521972656,
          "y1": 562.0424194335938,
          "center_x": 411.3611297607422,
          "center_y": 557.6894836425781
        },
        {
          "page": 19,
          "x0": 539.2579956054688,
          "y0": 394.5965881347656,
          "x1": 555.5902709960938,
          "y1": 403.302490234375,
          "center_x": 547.4241333007812,
          "center_y": 398.9495391845703
        }
      ]
    },
    "-R1": {
      "count": 1,
      "pages": [
        20
      ],
      "page_count": 1,
      "positions": [
        {
          "page": 20,
          "x0": 810.708984375,
          "y0": 49.26555633544922,
          "x1": 822.51416015625,
          "y1": 57.971458435058594,
          "center_x": 816.611572265625,
          "center_y": 53.618507385253906
        }
      ]
    },
    "-R2": {
      "count": 1,
      "pages": [
        20
      ],
      "page_count": 1,
      "positions": [
        {
          "page": 20,
          "x0": 890.0789794921875,
          "y0": 49.26555633544922,
          "x1": 901.8841552734375,
          "y1": 57.971458435058594,
          "center_x": 895.9815673828125,
          "center_y": 53.618507385253906
        }
      ]
    },
    "-R3": {
      "count": 1,
      "pages": [
        20
      ],
      "page_count": 1,
      "positions": [
        {
          "page": 20,
          "x0": 969.448974609375,
          "y0": 49.26555633544922,
          "x1": 981.254150390625,
          "y1": 57.971458435058594,
          "center_x": 975.3515625,
          "center_y": 53.618507385253906
        }
      ]
    },
    "-R4": {
      "count": 1,
      "pages": [
        20
      ],
      "page_count": 1,
      "positions": [
        {
          "page": 20,
          "x0": 1048.8199462890625,
          "y0": 49.26555633544922,
          "x1": 1060.625244140625,
          "y1": 57.971458435058594,
          "center_x": 1054.7225952148438,
          "center_y": 53.618507385253906
        }
      ]
    },
    "-U1": {
      "count": 4,
      "pages": [
        8,
        18,
        20
      ],
      "page_count": 3,
      "positions": [
        {
          "page": 8,
          "x0": 622.2940063476562,
          "y0": 535.974609375,
          "x1": 634.9610595703125,
          "y1": 544.6804809570312,
          "center_x": 628.6275329589844,
          "center_y": 540.3275451660156
        },
        {
          "page": 18,
          "x0": 372.8450012207031,
          "y0": 485.3055725097656,
          "x1": 385.5120849609375,
          "y1": 494.011474609375,
          "center_x": 379.1785430908203,
          "center_y": 489.6585235595703
        },
        {
          "page": 20,
          "x0": 228.2779998779297,
          "y0": 254.777587890625,
          "x1": 240.94508361816406,
          "y1": 263.4834899902344,
          "center_x": 234.61154174804688,
          "center_y": 259.1305389404297
        },
        {
          "page": 20,
          "x0": 332.7869873046875,
          "y0": 598.6905517578125,
          "x1": 342.7900695800781,
          "y1": 607.3964233398438,
          "center_x": 337.7885284423828,
          "center_y": 603.0434875488281
        }
      ]
    },
    "-Z1": {
      "count": 1,
      "pages": [
        20
      ],
      "page_count": 1,
      "positions": [
        {
          "page": 20,
          "x0": 252.47000122070312,
          "y0": 130.0535888671875,
          "x1": 263.62225341796875,
          "y1": 138.7594757080078,
          "center_x": 258.04612731933594,
          "center_y": 134.40653228759766
        }
      ]
    },
    "-Z2": {
      "count": 1,
      "pages": [
        20
      ],
      "page_count": 1,
      "positions": [
        {
          "page": 20,
          "x0": 71.05249786376953,
          "y0": 164.068603515625,
          "x1": 82.20475769042969,
          "y1": 172.7744903564453,
          "center_x": 76.62862777709961,
          "center_y": 168.42154693603516
        }
      ]
    }
  },
  "expected_placements": 154,
  "multi_page_tags": {
    "-A1": {
      "pages": [
        7,
        13,
        15,
        17,
        18,
        19
      ],
      "total_count": 26
    },
    "-F2": {
      "pages": [
        9,
        13,
        14
      ],
      "total_count": 4
    },
    "-F3": {
      "pages": [
        9,
        13,
        14
      ],
      "total_count": 3
    },
    "-F4": {
      "pages": [
        7,
        9,
        15
      ],
      "total_count": 3
    },
    "-F5": {
      "pages": [
        9,
        15
      ],
      "total_count": 2
    },
    "-F6": {
      "pages": [
        9,
        15
      ],
      "total_count": 2
    },
    "-F7": {
      "pages": [
        9,
        21
      ],
      "total_count": 2
    },
    "-G1": {
      "pages": [
        7,
        15
      ],
      "total_count": 2
    },
    "-K1": {
      "pages": [
        7,
        8,
        9,
        10,
        13,
        15,
        18,
        19,
        20,
        21
      ],
      "total_count": 70
    },
    "-K2": {
      "pages": [
        8,
        9,
        18,
        19,
        20
      ],
      "total_count": 10
    },
    "-K3": {
      "pages": [
        8,
        18,
        19
      ],
      "total_count": 6
    },
    "-KR1": {
      "pages": [
        8,
        18,
        19
      ],
      "total_count": 9
    },
    "-U1": {
      "pages": [
        8,
        18,
        20
      ],
      "total_count": 4
    }
  }
}